[gd_scene load_steps=17 format=2]

[ext_resource path="res://Worlds/World1.gd" type="Script" id=1]
[ext_resource path="res://Player/Player.tscn" type="PackedScene" id=2]
[ext_resource path="res://Worlds/BackgroundLeft.png" type="Texture" id=3]
[ext_resource path="res://Font.ttf" type="DynamicFontData" id=4]
[ext_resource path="res://Worlds/Terrain (32x32).png" type="Texture" id=5]
[ext_resource path="res://Worlds/Decorations (32x32).png" type="Texture" id=6]
[ext_resource path="res://Worlds/Background.png" type="Texture" id=7]
[ext_resource path="res://Ghost/Ghost.tscn" type="PackedScene" id=8]
[ext_resource path="res://TimerIndicator/TimerIndicator.tscn" type="PackedScene" id=9]
[ext_resource path="res://Player/win.wav" type="AudioStream" id=10]

[sub_resource type="TileSet" id=4]
1/name = "Terrain (32x32).png 1"
1/texture = ExtResource( 5 )
1/tex_offset = Vector2( 0, 0 )
1/modulate = Color( 1, 1, 1, 1 )
1/region = Rect2( 64, 448, 192, 192 )
1/tile_mode = 1
1/autotile/bitmask_mode = 0
1/autotile/bitmask_flags = [ Vector2( 0, 0 ), 256, Vector2( 0, 1 ), 260, Vector2( 0, 2 ), 4, Vector2( 1, 0 ), 320, Vector2( 1, 1 ), 325, Vector2( 1, 2 ), 5, Vector2( 2, 0 ), 64, Vector2( 2, 1 ), 65, Vector2( 2, 2 ), 1 ]
1/autotile/icon_coordinate = Vector2( 0, 0 )
1/autotile/tile_size = Vector2( 64, 64 )
1/autotile/spacing = 0
1/autotile/occluder_map = [  ]
1/autotile/navpoly_map = [  ]
1/autotile/priority_map = [  ]
1/autotile/z_index_map = [  ]
1/occluder_offset = Vector2( 0, 0 )
1/navigation_offset = Vector2( 0, 0 )
1/shape_offset = Vector2( 0, 0 )
1/shape_transform = Transform2D( 1, 0, 0, 1, 0, 0 )
1/shape_one_way = false
1/shape_one_way_margin = 0.0
1/shapes = [  ]
1/z_index = 0
2/name = "Terrain (32x32).png 2"
2/texture = ExtResource( 5 )
2/tex_offset = Vector2( 0, 0 )
2/modulate = Color( 1, 1, 1, 1 )
2/region = Rect2( 128, 512, 64, 64 )
2/tile_mode = 1
2/autotile/bitmask_mode = 0
2/autotile/bitmask_flags = [  ]
2/autotile/icon_coordinate = Vector2( 0, 0 )
2/autotile/tile_size = Vector2( 64, 64 )
2/autotile/spacing = 0
2/autotile/occluder_map = [  ]
2/autotile/navpoly_map = [  ]
2/autotile/priority_map = [  ]
2/autotile/z_index_map = [  ]
2/occluder_offset = Vector2( 0, 0 )
2/navigation_offset = Vector2( 0, 0 )
2/shape_offset = Vector2( 0, 0 )
2/shape_transform = Transform2D( 1, 0, 0, 1, 0, 0 )
2/shape_one_way = false
2/shape_one_way_margin = 0.0
2/shapes = [  ]
2/z_index = 0
3/name = "Terrain (32x32).png 3"
3/texture = ExtResource( 5 )
3/tex_offset = Vector2( 0, 0 )
3/modulate = Color( 1, 1, 1, 1 )
3/region = Rect2( 64, 64, 64, 64 )
3/tile_mode = 1
3/autotile/bitmask_mode = 0
3/autotile/bitmask_flags = [  ]
3/autotile/icon_coordinate = Vector2( 0, 0 )
3/autotile/tile_size = Vector2( 64, 64 )
3/autotile/spacing = 0
3/autotile/occluder_map = [  ]
3/autotile/navpoly_map = [  ]
3/autotile/priority_map = [  ]
3/autotile/z_index_map = [  ]
3/occluder_offset = Vector2( 0, 0 )
3/navigation_offset = Vector2( 0, 0 )
3/shape_offset = Vector2( 0, 0 )
3/shape_transform = Transform2D( 1, 0, 0, 1, 0, 0 )
3/shape_one_way = false
3/shape_one_way_margin = 0.0
3/shapes = [  ]
3/z_index = 0
4/name = "Terrain (32x32).png 4"
4/texture = ExtResource( 5 )
4/tex_offset = Vector2( 0, 0 )
4/modulate = Color( 1, 1, 1, 1 )
4/region = Rect2( 128, 64, 64, 64 )
4/tile_mode = 1
4/autotile/bitmask_mode = 0
4/autotile/bitmask_flags = [  ]
4/autotile/icon_coordinate = Vector2( 0, 0 )
4/autotile/tile_size = Vector2( 64, 64 )
4/autotile/spacing = 0
4/autotile/occluder_map = [  ]
4/autotile/navpoly_map = [  ]
4/autotile/priority_map = [  ]
4/autotile/z_index_map = [  ]
4/occluder_offset = Vector2( 0, 0 )
4/navigation_offset = Vector2( 0, 0 )
4/shape_offset = Vector2( 0, 0 )
4/shape_transform = Transform2D( 1, 0, 0, 1, 0, 0 )
4/shape_one_way = false
4/shape_one_way_margin = 0.0
4/shapes = [  ]
4/z_index = 0
5/name = "Terrain (32x32).png 5"
5/texture = ExtResource( 5 )
5/tex_offset = Vector2( 0, 0 )
5/modulate = Color( 1, 1, 1, 1 )
5/region = Rect2( 192, 64, 64, 64 )
5/tile_mode = 1
5/autotile/bitmask_mode = 0
5/autotile/bitmask_flags = [  ]
5/autotile/icon_coordinate = Vector2( 0, 0 )
5/autotile/tile_size = Vector2( 64, 64 )
5/autotile/spacing = 0
5/autotile/occluder_map = [  ]
5/autotile/navpoly_map = [  ]
5/autotile/priority_map = [  ]
5/autotile/z_index_map = [  ]
5/occluder_offset = Vector2( 0, 0 )
5/navigation_offset = Vector2( 0, 0 )
5/shape_offset = Vector2( 0, 0 )
5/shape_transform = Transform2D( 1, 0, 0, 1, 0, 0 )
5/shape_one_way = false
5/shape_one_way_margin = 0.0
5/shapes = [  ]
5/z_index = 0
6/name = "Terrain (32x32).png 6"
6/texture = ExtResource( 5 )
6/tex_offset = Vector2( 0, 0 )
6/modulate = Color( 1, 1, 1, 1 )
6/region = Rect2( 64, 128, 64, 64 )
6/tile_mode = 1
6/autotile/bitmask_mode = 0
6/autotile/bitmask_flags = [  ]
6/autotile/icon_coordinate = Vector2( 0, 0 )
6/autotile/tile_size = Vector2( 64, 64 )
6/autotile/spacing = 0
6/autotile/occluder_map = [  ]
6/autotile/navpoly_map = [  ]
6/autotile/priority_map = [  ]
6/autotile/z_index_map = [  ]
6/occluder_offset = Vector2( 0, 0 )
6/navigation_offset = Vector2( 0, 0 )
6/shape_offset = Vector2( 0, 0 )
6/shape_transform = Transform2D( 1, 0, 0, 1, 0, 0 )
6/shape_one_way = false
6/shape_one_way_margin = 0.0
6/shapes = [  ]
6/z_index = 0
7/name = "Terrain (32x32).png 7"
7/texture = ExtResource( 5 )
7/tex_offset = Vector2( 0, 0 )
7/modulate = Color( 1, 1, 1, 1 )
7/region = Rect2( 128, 128, 64, 64 )
7/tile_mode = 1
7/autotile/bitmask_mode = 0
7/autotile/bitmask_flags = [  ]
7/autotile/icon_coordinate = Vector2( 0, 0 )
7/autotile/tile_size = Vector2( 64, 64 )
7/autotile/spacing = 0
7/autotile/occluder_map = [  ]
7/autotile/navpoly_map = [  ]
7/autotile/priority_map = [  ]
7/autotile/z_index_map = [  ]
7/occluder_offset = Vector2( 0, 0 )
7/navigation_offset = Vector2( 0, 0 )
7/shape_offset = Vector2( 0, 0 )
7/shape_transform = Transform2D( 1, 0, 0, 1, 0, 0 )
7/shape_one_way = false
7/shape_one_way_margin = 0.0
7/shapes = [  ]
7/z_index = 0
8/name = "Terrain (32x32).png 8"
8/texture = ExtResource( 5 )
8/tex_offset = Vector2( 0, 0 )
8/modulate = Color( 1, 1, 1, 1 )
8/region = Rect2( 192, 128, 64, 64 )
8/tile_mode = 1
8/autotile/bitmask_mode = 0
8/autotile/bitmask_flags = [  ]
8/autotile/icon_coordinate = Vector2( 0, 0 )
8/autotile/tile_size = Vector2( 64, 64 )
8/autotile/spacing = 0
8/autotile/occluder_map = [  ]
8/autotile/navpoly_map = [  ]
8/autotile/priority_map = [  ]
8/autotile/z_index_map = [  ]
8/occluder_offset = Vector2( 0, 0 )
8/navigation_offset = Vector2( 0, 0 )
8/shape_offset = Vector2( 0, 0 )
8/shape_transform = Transform2D( 1, 0, 0, 1, 0, 0 )
8/shape_one_way = false
8/shape_one_way_margin = 0.0
8/shapes = [  ]
8/z_index = 0
9/name = "Terrain (32x32).png 9"
9/texture = ExtResource( 5 )
9/tex_offset = Vector2( 0, 0 )
9/modulate = Color( 1, 1, 1, 1 )
9/region = Rect2( 64, 192, 64, 64 )
9/tile_mode = 1
9/autotile/bitmask_mode = 0
9/autotile/bitmask_flags = [  ]
9/autotile/icon_coordinate = Vector2( 0, 0 )
9/autotile/tile_size = Vector2( 64, 64 )
9/autotile/spacing = 0
9/autotile/occluder_map = [  ]
9/autotile/navpoly_map = [  ]
9/autotile/priority_map = [  ]
9/autotile/z_index_map = [  ]
9/occluder_offset = Vector2( 0, 0 )
9/navigation_offset = Vector2( 0, 0 )
9/shape_offset = Vector2( 0, 0 )
9/shape_transform = Transform2D( 1, 0, 0, 1, 0, 0 )
9/shape_one_way = false
9/shape_one_way_margin = 0.0
9/shapes = [  ]
9/z_index = 0
10/name = "Terrain (32x32).png 10"
10/texture = ExtResource( 5 )
10/tex_offset = Vector2( 0, 0 )
10/modulate = Color( 1, 1, 1, 1 )
10/region = Rect2( 128, 192, 64, 64 )
10/tile_mode = 1
10/autotile/bitmask_mode = 0
10/autotile/bitmask_flags = [  ]
10/autotile/icon_coordinate = Vector2( 0, 0 )
10/autotile/tile_size = Vector2( 64, 64 )
10/autotile/spacing = 0
10/autotile/occluder_map = [  ]
10/autotile/navpoly_map = [  ]
10/autotile/priority_map = [  ]
10/autotile/z_index_map = [  ]
10/occluder_offset = Vector2( 0, 0 )
10/navigation_offset = Vector2( 0, 0 )
10/shape_offset = Vector2( 0, 0 )
10/shape_transform = Transform2D( 1, 0, 0, 1, 0, 0 )
10/shape_one_way = false
10/shape_one_way_margin = 0.0
10/shapes = [  ]
10/z_index = 0
11/name = "Terrain (32x32).png 11"
11/texture = ExtResource( 5 )
11/tex_offset = Vector2( 0, 0 )
11/modulate = Color( 1, 1, 1, 1 )
11/region = Rect2( 192, 192, 64, 64 )
11/tile_mode = 1
11/autotile/bitmask_mode = 0
11/autotile/bitmask_flags = [  ]
11/autotile/icon_coordinate = Vector2( 0, 0 )
11/autotile/tile_size = Vector2( 64, 64 )
11/autotile/spacing = 0
11/autotile/occluder_map = [  ]
11/autotile/navpoly_map = [  ]
11/autotile/priority_map = [  ]
11/autotile/z_index_map = [  ]
11/occluder_offset = Vector2( 0, 0 )
11/navigation_offset = Vector2( 0, 0 )
11/shape_offset = Vector2( 0, 0 )
11/shape_transform = Transform2D( 1, 0, 0, 1, 0, 0 )
11/shape_one_way = false
11/shape_one_way_margin = 0.0
11/shapes = [  ]
11/z_index = 0
12/name = "Terrain (32x32).png 12"
12/texture = ExtResource( 5 )
12/tex_offset = Vector2( 0, 0 )
12/modulate = Color( 1, 1, 1, 1 )
12/region = Rect2( 448, 64, 64, 64 )
12/tile_mode = 1
12/autotile/bitmask_mode = 0
12/autotile/bitmask_flags = [  ]
12/autotile/icon_coordinate = Vector2( 0, 0 )
12/autotile/tile_size = Vector2( 64, 64 )
12/autotile/spacing = 0
12/autotile/occluder_map = [  ]
12/autotile/navpoly_map = [  ]
12/autotile/priority_map = [  ]
12/autotile/z_index_map = [  ]
12/occluder_offset = Vector2( 0, 0 )
12/navigation_offset = Vector2( 0, 0 )
12/shape_offset = Vector2( 0, 0 )
12/shape_transform = Transform2D( 1, 0, 0, 1, 0, 0 )
12/shape_one_way = false
12/shape_one_way_margin = 0.0
12/shapes = [  ]
12/z_index = 0
13/name = "Terrain (32x32).png 13"
13/texture = ExtResource( 5 )
13/tex_offset = Vector2( 0, 0 )
13/modulate = Color( 1, 1, 1, 1 )
13/region = Rect2( 512, 64, 64, 64 )
13/tile_mode = 1
13/autotile/bitmask_mode = 0
13/autotile/bitmask_flags = [  ]
13/autotile/icon_coordinate = Vector2( 0, 0 )
13/autotile/tile_size = Vector2( 64, 64 )
13/autotile/spacing = 0
13/autotile/occluder_map = [  ]
13/autotile/navpoly_map = [  ]
13/autotile/priority_map = [  ]
13/autotile/z_index_map = [  ]
13/occluder_offset = Vector2( 0, 0 )
13/navigation_offset = Vector2( 0, 0 )
13/shape_offset = Vector2( 0, 0 )
13/shape_transform = Transform2D( 1, 0, 0, 1, 0, 0 )
13/shape_one_way = false
13/shape_one_way_margin = 0.0
13/shapes = [  ]
13/z_index = 0
14/name = "Terrain (32x32).png 14"
14/texture = ExtResource( 5 )
14/tex_offset = Vector2( 0, 0 )
14/modulate = Color( 1, 1, 1, 1 )
14/region = Rect2( 448, 128, 64, 64 )
14/tile_mode = 1
14/autotile/bitmask_mode = 0
14/autotile/bitmask_flags = [  ]
14/autotile/icon_coordinate = Vector2( 0, 0 )
14/autotile/tile_size = Vector2( 64, 64 )
14/autotile/spacing = 0
14/autotile/occluder_map = [  ]
14/autotile/navpoly_map = [  ]
14/autotile/priority_map = [  ]
14/autotile/z_index_map = [  ]
14/occluder_offset = Vector2( 0, 0 )
14/navigation_offset = Vector2( 0, 0 )
14/shape_offset = Vector2( 0, 0 )
14/shape_transform = Transform2D( 1, 0, 0, 1, 0, 0 )
14/shape_one_way = false
14/shape_one_way_margin = 0.0
14/shapes = [  ]
14/z_index = 0
15/name = "Terrain (32x32).png 15"
15/texture = ExtResource( 5 )
15/tex_offset = Vector2( 0, 0 )
15/modulate = Color( 1, 1, 1, 1 )
15/region = Rect2( 512, 128, 64, 64 )
15/tile_mode = 1
15/autotile/bitmask_mode = 0
15/autotile/bitmask_flags = [  ]
15/autotile/icon_coordinate = Vector2( 0, 0 )
15/autotile/tile_size = Vector2( 64, 64 )
15/autotile/spacing = 0
15/autotile/occluder_map = [  ]
15/autotile/navpoly_map = [  ]
15/autotile/priority_map = [  ]
15/autotile/z_index_map = [  ]
15/occluder_offset = Vector2( 0, 0 )
15/navigation_offset = Vector2( 0, 0 )
15/shape_offset = Vector2( 0, 0 )
15/shape_transform = Transform2D( 1, 0, 0, 1, 0, 0 )
15/shape_one_way = false
15/shape_one_way_margin = 0.0
15/shapes = [  ]
15/z_index = 0

[sub_resource type="TileSet" id=5]
0/name = "Decorations (32x32).png 0"
0/texture = ExtResource( 6 )
0/tex_offset = Vector2( 0, 0 )
0/modulate = Color( 1, 1, 1, 1 )
0/region = Rect2( 64, 64, 64, 256 )
0/tile_mode = 2
0/autotile/icon_coordinate = Vector2( 0, 0 )
0/autotile/tile_size = Vector2( 64, 64 )
0/autotile/spacing = 0
0/autotile/occluder_map = [  ]
0/autotile/navpoly_map = [  ]
0/autotile/priority_map = [  ]
0/autotile/z_index_map = [  ]
0/occluder_offset = Vector2( 0, 0 )
0/navigation_offset = Vector2( 0, 0 )
0/shape_offset = Vector2( 0, 0 )
0/shape_transform = Transform2D( 1, 0, 0, 1, 0, 0 )
0/shape_one_way = false
0/shape_one_way_margin = 0.0
0/shapes = [  ]
0/z_index = 0
1/name = "Decorations (32x32).png 1"
1/texture = ExtResource( 6 )
1/tex_offset = Vector2( 0, 0 )
1/modulate = Color( 1, 1, 1, 1 )
1/region = Rect2( 128, 192, 128, 128 )
1/tile_mode = 2
1/autotile/icon_coordinate = Vector2( 0, 0 )
1/autotile/tile_size = Vector2( 64, 64 )
1/autotile/spacing = 0
1/autotile/occluder_map = [  ]
1/autotile/navpoly_map = [  ]
1/autotile/priority_map = [  ]
1/autotile/z_index_map = [  ]
1/occluder_offset = Vector2( 0, 0 )
1/navigation_offset = Vector2( 0, 0 )
1/shape_offset = Vector2( 0, 0 )
1/shape_transform = Transform2D( 1, 0, 0, 1, 0, 0 )
1/shape_one_way = false
1/shape_one_way_margin = 0.0
1/shapes = [  ]
1/z_index = 0
2/name = "Decorations (32x32).png 2"
2/texture = ExtResource( 6 )
2/tex_offset = Vector2( 0, 0 )
2/modulate = Color( 1, 1, 1, 1 )
2/region = Rect2( 256, 192, 128, 128 )
2/tile_mode = 2
2/autotile/icon_coordinate = Vector2( 0, 0 )
2/autotile/tile_size = Vector2( 64, 64 )
2/autotile/spacing = 0
2/autotile/occluder_map = [  ]
2/autotile/navpoly_map = [  ]
2/autotile/priority_map = [  ]
2/autotile/z_index_map = [  ]
2/occluder_offset = Vector2( 0, 0 )
2/navigation_offset = Vector2( 0, 0 )
2/shape_offset = Vector2( 0, 0 )
2/shape_transform = Transform2D( 1, 0, 0, 1, 0, 0 )
2/shape_one_way = false
2/shape_one_way_margin = 0.0
2/shapes = [  ]
2/z_index = 0
3/name = "Decorations (32x32).png 3"
3/texture = ExtResource( 6 )
3/tex_offset = Vector2( 0, 0 )
3/modulate = Color( 1, 1, 1, 1 )
3/region = Rect2( 128, 64, 256, 64 )
3/tile_mode = 2
3/autotile/icon_coordinate = Vector2( 0, 0 )
3/autotile/tile_size = Vector2( 64, 64 )
3/autotile/spacing = 0
3/autotile/occluder_map = [  ]
3/autotile/navpoly_map = [  ]
3/autotile/priority_map = [  ]
3/autotile/z_index_map = [  ]
3/occluder_offset = Vector2( 0, 0 )
3/navigation_offset = Vector2( 0, 0 )
3/shape_offset = Vector2( 0, 0 )
3/shape_transform = Transform2D( 1, 0, 0, 1, 0, 0 )
3/shape_one_way = false
3/shape_one_way_margin = 0.0
3/shapes = [  ]
3/z_index = 0
4/name = "Decorations (32x32).png 4"
4/texture = ExtResource( 6 )
4/tex_offset = Vector2( 0, 0 )
4/modulate = Color( 1, 1, 1, 1 )
4/region = Rect2( 128, 128, 256, 64 )
4/tile_mode = 2
4/autotile/icon_coordinate = Vector2( 0, 0 )
4/autotile/tile_size = Vector2( 64, 64 )
4/autotile/spacing = 0
4/autotile/occluder_map = [  ]
4/autotile/navpoly_map = [  ]
4/autotile/priority_map = [  ]
4/autotile/z_index_map = [  ]
4/occluder_offset = Vector2( 0, 0 )
4/navigation_offset = Vector2( 0, 0 )
4/shape_offset = Vector2( 0, 0 )
4/shape_transform = Transform2D( 1, 0, 0, 1, 0, 0 )
4/shape_one_way = false
4/shape_one_way_margin = 0.0
4/shapes = [  ]
4/z_index = 0

[sub_resource type="RectangleShape2D" id=6]
extents = Vector2( 377, 156.5 )

[sub_resource type="Animation" id=1]
resource_name = "showcasing"
length = 9.0
loop = true
tracks/0/type = "value"
tracks/0/path = NodePath("Camera2D:position")
tracks/0/interp = 1
tracks/0/loop_wrap = true
tracks/0/imported = false
tracks/0/enabled = true
tracks/0/keys = {
"times": PoolRealArray( 0, 1, 3, 5, 8, 9 ),
"transitions": PoolRealArray( 1, 1, 1, 1, 1, 1 ),
"update": 0,
"values": [ Vector2( 380, -184 ), Vector2( 380, -184 ), Vector2( 380, -1672 ), Vector2( 380, -1672 ), Vector2( 380, -184 ), Vector2( 380, -184 ) ]
}

[sub_resource type="DynamicFont" id=2]
font_data = ExtResource( 4 )

[sub_resource type="DynamicFont" id=3]
size = 50
outline_size = 4
outline_color = Color( 0, 0, 0, 1 )
font_data = ExtResource( 4 )

[node name="World5" type="Node2D"]
script = ExtResource( 1 )

[node name="TerrainMap" type="TileMap" parent="."]
position = Vector2( 380, -714 )
scale = Vector2( 1, 1.436 )
tile_set = SubResource( 4 )
cell_quadrant_size = 64
format = 1
tile_data = PoolIntArray( -1048583, 7, 0, -1048582, 7, 0, -1048581, 7, 0, -1048580, 7, 0, -1048579, 7, 0, -1048578, 7, 0, -1048577, 7, 0, -1114112, 7, 0, -1114111, 7, 0, -1114110, 7, 0, -1114109, 7, 0, -1114108, 7, 0, -1114107, 7, 0, -1114106, 7, 0, -983047, 7, 0, -983046, 12, 0, -983045, 10, 0, -983044, 10, 0, -983043, 10, 0, -983042, 10, 0, -983041, 7, 0, -1048576, 7, 0, -1048575, 7, 0, -1048574, 10, 0, -1048573, 10, 0, -1048572, 10, 0, -1048571, 13, 0, -1048570, 7, 0, -917511, 7, 0, -917510, 8, 0, -917509, 1, 0, -917508, 1, 1, -917507, 1, 1, -917506, 1, 1, -917505, 1, 1, -983040, 1, 1, -983039, 1, 1, -983038, 1, 1, -983037, 1, 1, -983036, 1, 2, -983035, 6, 0, -983034, 7, 0, -851975, 7, 0, -851974, 8, 0, -851973, 1, 65536, -851972, 1, 65537, -851971, 1, 65537, -851970, 1, 65537, -851969, 1, 65537, -917504, 1, 65537, -917503, 1, 65537, -917502, 1, 65537, -917501, 1, 65537, -917500, 1, 65538, -917499, 6, 0, -917498, 7, 0, -786439, 7, 0, -786438, 8, 0, -786437, 1, 65536, -786436, 1, 65537, -786435, 1, 65537, -786434, 1, 65537, -786433, 1, 65537, -851968, 1, 65537, -851967, 1, 65537, -851966, 1, 65537, -851965, 1, 65537, -851964, 1, 65538, -851963, 6, 0, -851962, 7, 0, -720903, 7, 0, -720902, 8, 0, -720901, 1, 65536, -720900, 1, 65537, -720899, 1, 65537, -720898, 1, 65537, -720897, 1, 65537, -786432, 1, 65537, -786431, 1, 65537, -786430, 1, 65537, -786429, 1, 65537, -786428, 1, 65538, -786427, 6, 0, -786426, 7, 0, -655367, 7, 0, -655366, 8, 0, -655365, 1, 65536, -655364, 1, 65537, -655363, 1, 65537, -655362, 1, 65537, -655361, 1, 65537, -720896, 1, 65537, -720895, 1, 65537, -720894, 1, 65537, -720893, 1, 65537, -720892, 1, 65538, -720891, 6, 0, -720890, 7, 0, -589831, 7, 0, -589830, 8, 0, -589829, 1, 65536, -589828, 1, 65537, -589827, 1, 65537, -589826, 1, 65537, -589825, 1, 65537, -655360, 1, 65537, -655359, 1, 65537, -655358, 1, 65537, -655357, 1, 65537, -655356, 1, 65538, -655355, 6, 0, -655354, 7, 0, -524295, 7, 0, -524294, 8, 0, -524293, 1, 65536, -524292, 1, 65537, -524291, 1, 65537, -524290, 1, 65537, -524289, 1, 65537, -589824, 1, 65537, -589823, 1, 65537, -589822, 1, 65537, -589821, 1, 65537, -589820, 1, 65538, -589819, 6, 0, -589818, 7, 0, -458759, 7, 0, -458758, 8, 0, -458757, 1, 65536, -458756, 1, 65537, -458755, 1, 65537, -458754, 1, 65537, -458753, 1, 65537, -524288, 1, 65537, -524287, 1, 65537, -524286, 1, 65537, -524285, 1, 65537, -524284, 1, 65538, -524283, 6, 0, -524282, 7, 0, -393223, 7, 0, -393222, 8, 0, -393221, 1, 65536, -393220, 1, 65537, -393219, 1, 65537, -393218, 1, 65537, -393217, 1, 65537, -458752, 1, 65537, -458751, 1, 65537, -458750, 1, 65537, -458749, 1, 65537, -458748, 1, 65538, -458747, 6, 0, -458746, 7, 0, -327687, 4, 0, -327686, 15, 0, -327685, 1, 65536, -327684, 1, 65537, -327683, 1, 65537, -327682, 1, 65537, -327681, 1, 65537, -393216, 1, 65537, -393215, 1, 65537, -393214, 1, 65537, -393213, 1, 65537, -393212, 1, 65538, -393211, 6, 0, -393210, 7, 0, -262151, 7, 0, -262150, 536870919, 0, -262149, 1, 65536, -262148, 1, 65537, -262147, 1, 65537, -262146, 1, 65537, -262145, 1, 65537, -327680, 1, 65537, -327679, 1, 65537, -327678, 1, 65537, -327677, 1, 65537, -327676, 1, 65538, -327675, 6, 0, -327674, 536870919, 0, -196615, 536870919, 0, -196614, 536870925, 0, -196613, 1, 65536, -196612, 1, 65537, -196611, 1, 65537, -196610, 1, 65537, -196609, 1, 65537, -262144, 1, 65537, -262143, 1, 65537, -262142, 1, 65537, -262141, 1, 65537, -262140, 1, 65538, -262139, 6, 0, -262138, 536870919, 0, -131079, 536870919, 0, -131078, 8, 0, -131077, 1, 65536, -131076, 1, 65537, -131075, 1, 65537, -131074, 1, 65537, -131073, 1, 65537, -196608, 1, 65537, -196607, 1, 65537, -196606, 1, 65537, -196605, 1, 65537, -196604, 1, 65538, -196603, 6, 0, -196602, 536870919, 0, -65543, 536870919, 0, -65542, 8, 0, -65541, 1, 65536, -65540, 1, 65537, -65539, 1, 65537, -65538, 1, 65537, -65537, 1, 65537, -131072, 1, 65537, -131071, 1, 65537, -131070, 1, 65537, -131069, 1, 65537, -131068, 1, 65538, -131067, 6, 0, -131066, 536870919, 0, -7, 536870919, 0, -6, 8, 0, -5, 1, 65536, -4, 1, 65537, -3, 1, 65537, -2, 1, 65537, -1, 1, 65537, -65536, 1, 65537, -65535, 1, 65537, -65534, 1, 65537, -65533, 1, 65537, -65532, 1, 65538, -65531, 6, 0, -65530, 536870919, 0, 65529, 536870919, 0, 65530, 8, 0, 65531, 1, 65536, 65532, 1, 65537, 65533, 1, 65537, 65534, 1, 65537, 65535, 1, 65537, 0, 1, 65537, 1, 1, 65537, 2, 1, 65537, 3, 1, 65537, 4, 1, 65538, 5, 6, 0, 6, 536870919, 0, 131065, 536870919, 0, 131066, 8, 0, 131067, 1, 65536, 131068, 1, 65537, 131069, 1, 65537, 131070, 1, 65537, 131071, 1, 65537, 65536, 1, 65537, 65537, 1, 65537, 65538, 1, 65537, 65539, 1, 65537, 65540, 1, 65538, 65541, 6, 0, 65542, 536870919, 0, 196601, 536870919, 0, 196602, 8, 0, 196603, 1, 65536, 196604, 1, 65537, 196605, 1, 65537, 196606, 1, 65537, 196607, 1, 65537, 131072, 1, 65537, 131073, 1, 65537, 131074, 1, 65537, 131075, 1, 65537, 131076, 1, 65538, 131077, 6, 0, 131078, 536870919, 0, 262137, 536870919, 0, 262138, 8, 0, 262139, 1, 65536, 262140, 1, 65537, 262141, 1, 65537, 262142, 1, 65537, 262143, 1, 65537, 196608, 1, 65537, 196609, 1, 65537, 196610, 1, 65537, 196611, 1, 65537, 196612, 1, 65538, 196613, 6, 0, 196614, 536870919, 0, 327673, 536870919, 0, 327674, 8, 0, 327675, 1, 65536, 327676, 1, 65537, 327677, 1, 65537, 327678, 1, 65537, 327679, 1, 65537, 262144, 1, 65537, 262145, 1, 65537, 262146, 1, 65537, 262147, 1, 65537, 262148, 1, 65538, 262149, 6, 0, 262150, 536870919, 0, 393209, 536870919, 0, 393210, 8, 0, 393211, 1, 65536, 393212, 1, 65537, 393213, 1, 65537, 393214, 1, 65537, 393215, 1, 65537, 327680, 1, 65537, 327681, 1, 65537, 327682, 1, 65537, 327683, 1, 65537, 327684, 1, 65538, 327685, 6, 0, 327686, 536870919, 0, 458745, 536870919, 0, 458746, 8, 0, 458747, 1, 65536, 458748, 1, 65537, 458749, 1, 65537, 458750, 1, 65537, 458751, 1, 65537, 393216, 1, 65537, 393217, 1, 65537, 393218, 1, 65537, 393219, 1, 65537, 393220, 1, 65538, 393221, 6, 0, 393222, 536870919, 0, 524281, 536870919, 0, 524282, 8, 0, 524283, 1, 65536, 524284, 1, 65537, 524285, 1, 65537, 524286, 1, 65537, 524287, 1, 65537, 458752, 1, 65537, 458753, 1, 65537, 458754, 1, 65537, 458755, 1, 65537, 458756, 1, 65538, 458757, 6, 0, 458758, 536870919, 0, 589817, 536870919, 0, 589818, 8, 0, 589819, 1, 65536, 589820, 1, 65537, 589821, 1, 65537, 589822, 1, 65537, 589823, 1, 65537, 524288, 1, 65537, 524289, 1, 65537, 524290, 1, 65537, 524291, 1, 65537, 524292, 1, 65538, 524293, 6, 0, 524294, 536870919, 0, 655353, 536870919, 0, 655354, 8, 0, 655355, 1, 65536, 655356, 1, 65537, 655357, 1, 65537, 655358, 1, 65537, 655359, 1, 65537, 589824, 1, 65537, 589825, 1, 65537, 589826, 1, 65537, 589827, 1, 65537, 589828, 1, 65538, 589829, 6, 0, 589830, 536870919, 0, 720889, 536870919, 0, 720890, 8, 0, 720891, 1, 65536, 720892, 1, 65537, 720893, 1, 65537, 720894, 1, 65537, 720895, 1, 65537, 655360, 1, 65537, 655361, 1, 65537, 655362, 1, 65537, 655363, 1, 65537, 655364, 1, 65538, 655365, 6, 0, 655366, 536870919, 0, 786425, 536870919, 0, 786426, 8, 0, 786427, 1, 65536, 786428, 1, 65537, 786429, 1, 65537, 786430, 1, 65537, 786431, 1, 65537, 720896, 1, 65537, 720897, 1, 65537, 720898, 1, 65537, 720899, 1, 65537, 720900, 1, 65538, 720901, 6, 0, 720902, 536870919, 0, 851961, 536870919, 0, 851962, 8, 0, 851963, 1, 65536, 851964, 1, 65537, 851965, 1, 65537, 851966, 1, 65537, 851967, 1, 65537, 786432, 1, 65537, 786433, 1, 65537, 786434, 1, 65537, 786435, 1, 65537, 786436, 1, 65538, 786437, 6, 0, 786438, 536870919, 0, 917497, 536870919, 0, 917498, 8, 0, 917499, 1, 65536, 917500, 1, 65537, 917501, 1, 65537, 917502, 1, 65537, 917503, 1, 65537, 851968, 1, 65537, 851969, 1, 65537, 851970, 1, 65537, 851971, 1, 65537, 851972, 1, 65538, 851973, 6, 0, 851974, 536870919, 0, 983033, 536870919, 0, 983034, 8, 0, 983035, 1, 65536, 983036, 1, 65537, 983037, 1, 65537, 983038, 1, 65537, 983039, 1, 65537, 917504, 1, 65537, 917505, 1, 65537, 917506, 1, 65537, 917507, 1, 65537, 917508, 1, 65538, 917509, 6, 0, 917510, 536870919, 0, 1048569, 536870919, 0, 1048570, 8, 0, 1048571, 1, 65536, 1048572, 1, 65537, 1048573, 1, 65537, 1048574, 1, 65537, 1048575, 1, 65537, 983040, 1, 65537, 983041, 1, 65537, 983042, 1, 65537, 983043, 1, 65537, 983044, 1, 65538, 983045, 6, 0, 983046, 536870919, 0, 1114105, 536870919, 0, 1114106, 8, 0, 1114107, 1, 65536, 1114108, 1, 65537, 1114109, 1, 65537, 1114110, 1, 65537, 1114111, 1, 65537, 1048576, 1, 65537, 1048577, 1, 65537, 1048578, 1, 65537, 1048579, 1, 65537, 1048580, 1, 65538, 1048581, 6, 0, 1048582, 536870919, 0, 1179641, 536870919, 0, 1179642, 8, 0, 1179643, 1, 131072, 1179644, 1, 131073, 1179645, 1, 131073, 1179646, 1, 131073, 1179647, 1, 131073, 1114112, 1, 131073, 1114113, 1, 131073, 1114114, 1, 131073, 1114115, 1, 131073, 1114116, 1, 131074, 1114117, 6, 0, 1114118, 536870919, 0, 1245177, 536870919, 0, 1245178, 536870927, 0, 1245179, 4, 0, 1245180, 4, 0, 1245181, 4, 0, 1245182, 4, 0, 1245183, 4, 0, 1179648, 4, 0, 1179649, 4, 0, 1179650, 4, 0, 1179651, 4, 0, 1179652, 4, 0, 1179653, 536870926, 0, 1179654, 536870919, 0, 1310713, 536870919, 0, 1310714, 536870919, 0, 1310715, 536870919, 0, 1310716, 536870919, 0, 1310717, 536870919, 0, 1310718, 536870919, 0, 1310719, 536870919, 0, 1245184, 536870919, 0, 1245185, 536870919, 0, 1245186, 536870919, 0, 1245187, 536870919, 0, 1245188, 536870919, 0, 1245189, 536870919, 0, 1245190, 536870919, 0 )

[node name="DecorationMap" type="TileMap" parent="."]
position = Vector2( 380, -714 )
scale = Vector2( 1, 1.436 )
tile_set = SubResource( 5 )
cell_quadrant_size = 64
format = 1
tile_data = PoolIntArray( -983040, 3, 0, -917503, 3, 0, -851966, 3, 0, -786429, 3, 0, -720894, 3, 0, -655359, 3, 0, -589824, 3, 0, -589821, 4, 3, -458753, 3, 0, -393218, 3, 0, -327683, 3, 0, -262151, 536870919, 0, -262148, 3, 0, -327675, 536870919, 0, -327674, 536870919, 0, -196613, 3, 0, -262139, 6, 0, -131077, 4, 0, -131076, 4, 1, -131075, 4, 2, -196604, 536870912, 65536, -131068, 536870912, 65536, -65532, 536870912, 65536, 65531, 3, 0, 65532, 3, 1, 65533, 3, 1, 65534, 3, 1, 65535, 3, 2, 4, 536870912, 131072, 6, 536870919, 0, 65536, 536870913, 1, 65537, 536870913, 0, 131072, 536870913, 65537, 131073, 536870913, 65536, 196614, 536870919, 0, 458750, 3, 3, 393217, 4, 0, 393218, 4, 1, 393219, 4, 1, 393220, 536870916, 0, 524284, 3, 3, 589821, 3, 3, 786430, 2, 0, 786431, 2, 1, 851966, 2, 65536, 851967, 2, 65537, 983033, 536870919, 0, 1114105, 536870919, 0, 1048582, 536870919, 0, 1114118, 536870919, 0, 1179654, 536870919, 0, 1310716, 536870919, 0, 1310717, 536870919, 0, 1310718, 536870919, 0, 1245189, 536870919, 0, 1245190, 536870919, 0 )

[node name="TextureRect" type="TextureRect" parent="."]
visible = false
margin_right = 760.0
margin_bottom = 1000.0
texture = ExtResource( 7 )

[node name="BackgroundLeft" type="Sprite" parent="."]
visible = false
position = Vector2( 380, -714 )
scale = Vector2( 1, 1.436 )
texture = ExtResource( 3 )

[node name="Player" parent="." instance=ExtResource( 2 )]
position = Vector2( 380, 876 )

[node name="Ghosts" type="Node2D" parent="."]

[node name="Ghost" parent="Ghosts" instance=ExtResource( 8 )]
position = Vector2( 176, 200 )

[node name="Ghost2" parent="Ghosts" instance=ExtResource( 8 )]
position = Vector2( 560, 200 )

[node name="Ghost3" parent="Ghosts" instance=ExtResource( 8 )]
position = Vector2( 368, -312 )

[node name="Ghost4" parent="Ghosts" instance=ExtResource( 8 )]
position = Vector2( 190, -312 )

[node name="Ghost7" parent="Ghosts" instance=ExtResource( 8 )]
position = Vector2( 560, -824 )

[node name="Ghost5" parent="Ghosts" instance=ExtResource( 8 )]
position = Vector2( 190, -824 )

[node name="Ghost6" parent="Ghosts" instance=ExtResource( 8 )]
position = Vector2( 190, -1848 )

[node name="Ghost9" parent="Ghosts" instance=ExtResource( 8 )]
position = Vector2( 380, -1336 )

[node name="Ghost11" parent="Ghosts" instance=ExtResource( 8 )]
position = Vector2( 380, -1848 )

[node name="Win Area" type="Area2D" parent="Ghosts/Ghost11"]
position = Vector2( -4, -240 )
__meta__ = {
"_edit_group_": true
}

[node name="CollisionShape2D" type="CollisionShape2D" parent="Ghosts/Ghost11/Win Area"]
shape = SubResource( 6 )

[node name="Ghost10" parent="Ghosts" instance=ExtResource( 8 )]
position = Vector2( 560, -1336 )

[node name="AnimationPlayer" type="AnimationPlayer" parent="."]
anims/showcasing = SubResource( 1 )

[node name="Camera2D" type="Camera2D" parent="."]
position = Vector2( 380, -184 )
__meta__ = {
"_edit_group_": true
}

[node name="ReadyText" type="RichTextLabel" parent="Camera2D"]
anchor_left = 0.5
anchor_top = 0.5
anchor_right = 0.5
anchor_bottom = 0.5
margin_left = -260.0
margin_top = -42.0
margin_right = 260.0
margin_bottom = 42.0
custom_fonts/mono_font = SubResource( 2 )
custom_fonts/normal_font = SubResource( 3 )
text = "Press Enter to begin"

[node name="WinText" type="RichTextLabel" parent="Camera2D"]
visible = false
margin_left = -116.0
margin_top = -40.0
margin_right = 404.0
margin_bottom = 44.0
custom_fonts/mono_font = SubResource( 2 )
custom_fonts/normal_font = SubResource( 3 )
text = "You win"

[node name="TimerIndicator" parent="Camera2D" instance=ExtResource( 9 )]
margin_top = -447.0
margin_bottom = -407.0
__meta__ = {
"_edit_use_anchors_": true
}

[node name="WinSound" type="AudioStreamPlayer2D" parent="."]
stream = ExtResource( 10 )

[node name="Timer" type="Timer" parent="."]
wait_time = 3.0
one_shot = true

[connection signal="body_entered" from="Ghosts/Ghost11/Win Area" to="." method="_on_Win_Area_body_entered"]
[connection signal="timeout" from="Timer" to="." method="_on_Timer_timeout"]
